{
  "development": {
    "username": "postgres",
    "password": "root",
    "database": "photo_db_dev",
    "host": "127.0.0.1",
    "dialect": "postgres",
    "logging":false
  },
  "test": {
    "username": "postgres",
    "password": "root",
    "database": "photo_db_dev",
    "host": "127.0.0.1",
    "dialect": "postgres"
  },
  "production": {
    "username": "root",
    "password": null,
    "database": "database_production",
    "host": "127.0.0.1",
    "dialect": "postgres"
  }
}
